<?xml version="1.0" encoding="utf-8"?>
<!-- Generator: Adobe Illustrator 24.0.0, SVG Export Plug-In . SVG Version: 6.00 Build 0)  -->
<svg version="1.1" id="Capa_1" xmlns="http://www.w3.org/2000/svg" xmlns:xlink="http://www.w3.org/1999/xlink" x="0px" y="0px"
	 viewBox="0 0 25 25" style="enable-background:new 0 0 25 25;" xml:space="preserve">
<style type="text/css">
	.st0{fill:none;stroke:#000000;stroke-width:2;stroke-miterlimit:10;}
</style>
<circle class="st0" cx="10.5" cy="10.5" r="8.5"/>
<g>
	<path d="M23,24c-0.3,0-0.5-0.1-0.7-0.3l-7-7c-0.4-0.4,0.6,0,1-0.4s0-1.4,0.4-1l7,7c0.4,0.4,0.4,1,0,1.4C23.5,23.9,23.3,24,23,24z"
		/>
</g>
</svg>
