<svg xmlns="http://www.w3.org/2000/svg" width="16" height="16" viewBox="0 0 16 16">
  <g id="Gruppe_132" data-name="Gruppe 132" transform="translate(-1585 -44)">
    <path id="Pfad_139" data-name="Pfad 139" d="M204.157,137v16" transform="translate(1388.843 -93)" fill="none" stroke="#8fff7e" stroke-width="2"/>
    <path id="Pfad_140" data-name="Pfad 140" d="M204.157,137v16" transform="translate(1738 -152.157) rotate(90)" fill="none" stroke="#8fff7e" stroke-width="2"/>
  </g>
</svg>
