<svg xmlns="http://www.w3.org/2000/svg" width="11.287" height="18.792" viewBox="0 0 11.287 18.792">
  <g id="delete" transform="translate(1.287 0.792)">
    <path id="Pfad_112" data-name="Pfad 112" d="M456,155h-7l-1-10h9Z" transform="translate(-448 -138)" fill="none" stroke="#fff" stroke-linejoin="round" stroke-width="2"/>
    <line id="Linie_1" data-name="Linie 1" y1="3" x2="8" transform="translate(0 0.496)" fill="none" stroke="#fff" stroke-linecap="round" stroke-miterlimit="10" stroke-width="2"/>
  </g>
</svg>
